2017-12-12 16:27:36,567|USSD:http://10.2.204.198:8083/UssdBroadcastService?mms=0&msisdn=62811916441&operationType=NI&password=adp123&pushReferenceId=abcdefghijklmn12345678&username=adp&ussdContent=aira assyifa althafunnisa&ussdShortCode=|<?xml version="1.0" ?><ns2:sendRequestResponse xmlns:ns2="http://service.ussdbroadcast.syniverse.com/"><ns2:return><pushReferenceId>abcdefghijklmn12345678</pushReferenceId><responseCode>8196</responseCode></ns2:return></ns2:sendRequestResponse>|62811916441|0|aira assyifa althafunnisa|1234567890
2017-12-12 16:33:51,614|USSD:http://10.2.204.198:8083/UssdBroadcastService?mms=0&msisdn=62811916441&operationType=NI&password=adp123&pushReferenceId=20130424abcdefgh&username=adp&ussdContent=aira assyifa althafunnisa&ussdShortCode=|<?xml version="1.0" ?><ns2:sendRequestResponse xmlns:ns2="http://service.ussdbroadcast.syniverse.com/"><ns2:return><pushReferenceId>20130424abcdefgh</pushReferenceId><responseCode>0</responseCode></ns2:return></ns2:sendRequestResponse>|62811916441|0|aira assyifa althafunnisa|20130424abcdefgh
2017-12-12 16:34:32,526|USSD:http://10.2.204.198:8083/UssdBroadcastService?mms=1&msisdn=62811916441&operationType=NI&password=adp123&pushReferenceId=20130424abcdefgh&username=adp&ussdContent=aira assyifa althafunnisa&ussdShortCode=|<?xml version="1.0" ?><ns2:sendRequestResponse xmlns:ns2="http://service.ussdbroadcast.syniverse.com/"><ns2:return><pushReferenceId>20130424abcdefgh</pushReferenceId><responseCode>0</responseCode></ns2:return></ns2:sendRequestResponse>|62811916441|1|aira assyifa althafunnisa|20130424abcdefgh
2017-12-12 16:34:53,910|USSD:http://10.2.204.198:8083/UssdBroadcastService?mms=1&msisdn=62811916441&operationType=NI&password=adp123&pushReferenceId=20130424abcdefgh&username=adp&ussdContent=aira assyifa althafunnisa&ussdShortCode=|<?xml version="1.0" ?><ns2:sendRequestResponse xmlns:ns2="http://service.ussdbroadcast.syniverse.com/"><ns2:return><pushReferenceId>20130424abcdefgh</pushReferenceId><responseCode>0</responseCode></ns2:return></ns2:sendRequestResponse>|62811916441|1|aira assyifa althafunnisa|20130424abcdefgh
2017-12-12 16:35:13,686|USSD:http://10.2.204.198:8083/UssdBroadcastService?mms=1&msisdn=62811916441&operationType=NI&password=adp123&pushReferenceId=40130424abcdefgh&username=adp&ussdContent=aira assyifa althafunnisa&ussdShortCode=|<?xml version="1.0" ?><ns2:sendRequestResponse xmlns:ns2="http://service.ussdbroadcast.syniverse.com/"><ns2:return><pushReferenceId>40130424abcdefgh</pushReferenceId><responseCode>0</responseCode></ns2:return></ns2:sendRequestResponse>|62811916441|1|aira assyifa althafunnisa|40130424abcdefgh
2017-12-12 16:37:15,109|USSD:http://10.2.204.198:8083/UssdBroadcastService?mms=4&msisdn=62811916441&operationType=NI&password=adp123&pushReferenceId=40130424abcdefgh&username=adp&ussdContent=aira assyifa althafunnisa&ussdShortCode=|<?xml version="1.0" ?><ns2:sendRequestResponse xmlns:ns2="http://service.ussdbroadcast.syniverse.com/"><ns2:return><pushReferenceId>40130424abcdefgh</pushReferenceId><responseCode>8197</responseCode></ns2:return></ns2:sendRequestResponse>|62811916441|4|aira assyifa althafunnisa|40130424abcdefgh
2017-12-12 16:37:25,881|USSD:http://10.2.204.198:8083/UssdBroadcastService?mms=2&msisdn=62811916441&operationType=NI&password=adp123&pushReferenceId=40130424abcdefgh&username=adp&ussdContent=aira assyifa althafunnisa&ussdShortCode=|<?xml version="1.0" ?><ns2:sendRequestResponse xmlns:ns2="http://service.ussdbroadcast.syniverse.com/"><ns2:return><pushReferenceId>40130424abcdefgh</pushReferenceId><responseCode>8197</responseCode></ns2:return></ns2:sendRequestResponse>|62811916441|2|aira assyifa althafunnisa|40130424abcdefgh
2017-12-12 16:37:35,295|USSD:http://10.2.204.198:8083/UssdBroadcastService?mms=1&msisdn=62811916441&operationType=NI&password=adp123&pushReferenceId=40130424abcdefgh&username=adp&ussdContent=aira assyifa althafunnisa&ussdShortCode=|<?xml version="1.0" ?><ns2:sendRequestResponse xmlns:ns2="http://service.ussdbroadcast.syniverse.com/"><ns2:return><pushReferenceId>40130424abcdefgh</pushReferenceId><responseCode>0</responseCode></ns2:return></ns2:sendRequestResponse>|62811916441|1|aira assyifa althafunnisa|40130424abcdefgh
2017-12-12 16:40:58,417|USSD:http://10.2.204.198:8083/UssdBroadcastService?mms=1&msisdn=62811916441&operationType=IN&password=adp123&pushReferenceId=50130424abcdefgh&username=adp&ussdContent=aira assyifa althafunnisa&ussdShortCode=|<?xml version="1.0" ?><ns2:sendRequestResponse xmlns:ns2="http://service.ussdbroadcast.syniverse.com/"><ns2:return><pushReferenceId>50130424abcdefgh</pushReferenceId><responseCode>0</responseCode></ns2:return></ns2:sendRequestResponse>|62811916441|1|aira assyifa althafunnisa|50130424abcdefgh
