2014-04-14 10:22:56| INFO||6281281916777|DestroySubscriberMenuSession: null
2014-04-14 10:22:56|DEBUG|1234567890123456|DbJasindo|getNominal: 50000
2014-04-14 10:22:56|DEBUG| Close CP DB Connection
2014-04-14 10:22:56| INFO||6281281916777|CreateSubscriberMenuSession: 0|0|50000|0|0|46500| 
2014-04-14 10:23:09| INFO||6281281916777|GetSubscriberMenuSession: 0|0|50000|0|0|46500| 
2014-04-14 10:23:09|DEBUG|6281281916777|46500|DbJasindo|updateBalance: 1
2014-04-14 10:23:09|DEBUG| Close CP DB Connection
2014-04-14 10:23:09| INFO||6281281916777|CreateSubscriberMenuSession: 1|0|50000|0|0|46500| 
2014-04-14 10:23:20| INFO||6281281916777|GetSubscriberMenuSession: 1|0|50000|0|0|46500| 
2014-04-14 10:23:28| INFO||6281281916777|GetSubscriberMenuSession: 1|0|50000|0|0|46500| 
2014-04-14 16:35:01| INFO||6281281916777|DestroySubscriberMenuSession: null
2014-04-14 16:35:01|DEBUG|1234567890123456|DbJasindo|getNominal: 50000
2014-04-14 16:35:01|DEBUG| Close CP DB Connection
2014-04-14 16:35:01| INFO||6281281916777|CreateSubscriberMenuSession: 0|0|50000|0|0|46500| 
2014-04-14 16:35:55| INFO||6281281916777|GetSubscriberMenuSession: 0|0|50000|0|0|46500| 
2014-04-14 16:35:55|DEBUG|6281281916777|46500|DbJasindo|updateBalance: 1
2014-04-14 16:35:55|DEBUG| Close CP DB Connection
2014-04-14 16:35:55| INFO||6281281916777|CreateSubscriberMenuSession: 1|0|50000|0|0|46500| 
2014-04-14 16:36:08| INFO||6281281916777|GetSubscriberMenuSession: 1|0|50000|0|0|46500| 
2014-04-14 16:36:18| INFO||6281281916777|GetSubscriberMenuSession: 1|0|50000|0|0|46500| 
