2014-08-27 13:49:42| INFO||62811109080|DestroySubscriberMenuSession: null
2014-08-27 13:49:42|DEBUG|1234567890123456|DbJasindo|getNominal: 50000
2014-08-27 13:49:42|DEBUG| Close CP DB Connection
2014-08-27 13:49:42| INFO||62811109080|CreateSubscriberMenuSession: 0|0|50000|0|0|46500| 
