2014-04-01 14:02:18| INFO||6281281916777|DestroySubscriberMenuSession: null
2014-04-01 14:02:18|DEBUG|1234567890123456|DbJasindo|getNominal: 50000
2014-04-01 14:02:18|DEBUG| Close CP DB Connection
2014-04-01 14:02:18| INFO||6281281916777|CreateSubscriberMenuSession: 0|0|50000|0|0|46500| 
2014-04-01 14:02:29| INFO||6281281916777|GetSubscriberMenuSession: 0|0|50000|0|0|46500| 
2014-04-01 14:02:29|DEBUG|6281281916777|46500|DbJasindo|updateBalance: 1
2014-04-01 14:02:29|DEBUG| Close CP DB Connection
2014-04-01 14:02:29| INFO||6281281916777|CreateSubscriberMenuSession: 1|0|50000|0|0|46500| 
2014-04-01 14:08:56| INFO||628111171115|DestroySubscriberMenuSession: null
2014-04-01 14:08:56|DEBUG|1234567890123456|DbJasindo|getNominal: 50000
2014-04-01 14:08:56|DEBUG| Close CP DB Connection
2014-04-01 14:08:56| INFO||628111171115|CreateSubscriberMenuSession: 0|0|50000|0|0|46500| 
2014-04-01 14:09:01| INFO||628111171115|GetSubscriberMenuSession: 0|0|50000|0|0|46500| 
2014-04-01 14:09:01|DEBUG|628111171115|46500|DbJasindo|updateBalance: 1
2014-04-01 14:09:01|DEBUG| Close CP DB Connection
2014-04-01 14:09:01| INFO||628111171115|CreateSubscriberMenuSession: 1|0|50000|0|0|46500| 
2014-04-01 14:09:07| INFO||628111171115|GetSubscriberMenuSession: 1|0|50000|0|0|46500| 
2014-04-01 14:09:16| INFO||628111171115|GetSubscriberMenuSession: 1|0|50000|0|0|46500| 
2014-04-01 14:09:47| INFO||628111171115|GetSubscriberMenuSession: 1|0|50000|0|0|46500| 
2014-04-01 14:16:22| INFO||6281281916777|DestroySubscriberMenuSession: null
2014-04-01 14:16:22|DEBUG|01|DbJasindo|getNominal: -99
2014-04-01 14:16:22|DEBUG| Close CP DB Connection
2014-04-01 14:19:03| INFO||628111171115|DestroySubscriberMenuSession: null
2014-04-01 14:19:03|DEBUG|1234567890123456|DbJasindo|getNominal: 50000
2014-04-01 14:19:03|DEBUG| Close CP DB Connection
2014-04-01 14:19:03| INFO||628111171115|CreateSubscriberMenuSession: 0|0|50000|0|0|46500| 
2014-04-01 14:19:08| INFO||628111171115|GetSubscriberMenuSession: 0|0|50000|0|0|46500| 
2014-04-01 14:19:08|DEBUG|628111171115|46500|DbJasindo|updateBalance: 1
2014-04-01 14:19:08|DEBUG| Close CP DB Connection
2014-04-01 14:19:08| INFO||628111171115|CreateSubscriberMenuSession: 1|0|50000|0|0|46500| 
2014-04-01 14:19:12| INFO||628111171115|GetSubscriberMenuSession: 1|0|50000|0|0|46500| 
2014-04-01 14:49:57| INFO||628111171115|DestroySubscriberMenuSession: null
2014-04-01 14:49:57|DEBUG|1234567890123456|DbJasindo|getNominal: 50000
2014-04-01 14:49:57|DEBUG| Close CP DB Connection
2014-04-01 14:49:57| INFO||628111171115|CreateSubscriberMenuSession: 0|0|50000|0|0|46500| 
2014-04-01 14:50:01| INFO||628111171115|GetSubscriberMenuSession: 0|0|50000|0|0|46500| 
2014-04-01 14:50:01|DEBUG|628111171115|46500|DbJasindo|updateBalance: 1
2014-04-01 14:50:01|DEBUG| Close CP DB Connection
2014-04-01 14:50:01| INFO||628111171115|CreateSubscriberMenuSession: 1|0|50000|0|0|46500| 
2014-04-01 14:50:05| INFO||628111171115|GetSubscriberMenuSession: 1|0|50000|0|0|46500| 
2014-04-01 15:11:42| INFO||62811917695|DestroySubscriberMenuSession: null
2014-04-01 15:11:42|DEBUG|12345|DbJasindo|getNominal: 25000
2014-04-01 15:11:42|DEBUG| Close CP DB Connection
2014-04-01 15:11:42| INFO||62811917695|CreateSubscriberMenuSession: 0|0|25000|0|0|21500| 
2014-04-01 15:12:00| INFO||62811917695|GetSubscriberMenuSession: 0|0|25000|0|0|21500| 
2014-04-01 15:12:00|DEBUG|62811917695|21500|DbJasindo|updateBalance: 1
2014-04-01 15:12:00|DEBUG| Close CP DB Connection
2014-04-01 15:12:00| INFO||62811917695|CreateSubscriberMenuSession: 1|0|25000|0|0|21500| 
2014-04-01 15:12:11| INFO||62811917695|GetSubscriberMenuSession: 1|0|25000|0|0|21500| 
2014-04-01 15:13:57| INFO||62811917695|DestroySubscriberMenuSession: null
2014-04-01 15:13:57|DEBUG|12345|DbJasindo|getNominal: 25000
2014-04-01 15:13:57|DEBUG| Close CP DB Connection
2014-04-01 15:13:57| INFO||62811917695|CreateSubscriberMenuSession: 0|0|25000|0|0|21500| 
2014-04-01 15:14:03| INFO||62811917695|GetSubscriberMenuSession: 0|0|25000|0|0|21500| 
2014-04-01 15:14:03|DEBUG|62811917695|21500|DbJasindo|updateBalance: 1
2014-04-01 15:14:03|DEBUG| Close CP DB Connection
2014-04-01 15:14:03| INFO||62811917695|CreateSubscriberMenuSession: 1|0|25000|0|0|21500| 
2014-04-01 15:14:12| INFO||62811917695|GetSubscriberMenuSession: 1|0|25000|0|0|21500| 
2014-04-01 15:14:27| INFO||62811917695|GetSubscriberMenuSession: 1|0|25000|0|0|21500| 
2014-04-01 15:14:42| INFO||62811917695|GetSubscriberMenuSession: 1|0|25000|0|0|21500| 
2014-04-01 15:19:26| INFO||6281281916777|DestroySubscriberMenuSession: null
2014-04-01 15:19:26|DEBUG|1234567890123456|DbJasindo|getNominal: 50000
2014-04-01 15:19:26|DEBUG| Close CP DB Connection
2014-04-01 15:19:26| INFO||6281281916777|CreateSubscriberMenuSession: 0|0|50000|0|0|46500| 
2014-04-01 15:19:35| INFO||6281281916777|GetSubscriberMenuSession: 0|0|50000|0|0|46500| 
2014-04-01 15:19:35|DEBUG|6281281916777|46500|DbJasindo|updateBalance: 1
2014-04-01 15:19:35|DEBUG| Close CP DB Connection
2014-04-01 15:19:35| INFO||6281281916777|CreateSubscriberMenuSession: 1|0|50000|0|0|46500| 
2014-04-01 15:19:47| INFO||6281281916777|GetSubscriberMenuSession: 1|0|50000|0|0|46500| 
2014-04-01 15:20:27| INFO||62811917695|DestroySubscriberMenuSession: null
2014-04-01 15:20:27|DEBUG|12345|DbJasindo|getNominal: 25000
2014-04-01 15:20:27|DEBUG| Close CP DB Connection
2014-04-01 15:20:27| INFO||62811917695|CreateSubscriberMenuSession: 0|0|25000|0|0|21500| 
2014-04-01 15:20:35| INFO||62811917695|GetSubscriberMenuSession: 0|0|25000|0|0|21500| 
2014-04-01 15:20:35|DEBUG|62811917695|21500|DbJasindo|updateBalance: 1
2014-04-01 15:20:35|DEBUG| Close CP DB Connection
2014-04-01 15:20:35| INFO||62811917695|CreateSubscriberMenuSession: 1|0|25000|0|0|21500| 
2014-04-01 15:20:46| INFO||62811917695|GetSubscriberMenuSession: 1|0|25000|0|0|21500| 
2014-04-01 15:24:57| INFO||62811109080|DestroySubscriberMenuSession: null
2014-04-01 15:24:57|DEBUG|1234567890|DbJasindo|getNominal: -99
2014-04-01 15:24:57|DEBUG| Close CP DB Connection
2014-04-01 15:29:05| INFO||62811917695|DestroySubscriberMenuSession: null
2014-04-01 15:29:06|DEBUG|12345|DbJasindo|getNominal: 25000
2014-04-01 15:29:06|DEBUG| Close CP DB Connection
2014-04-01 15:29:06| INFO||62811917695|CreateSubscriberMenuSession: 0|0|25000|0|0|21500| 
2014-04-01 15:29:13| INFO||62811917695|GetSubscriberMenuSession: 0|0|25000|0|0|21500| 
2014-04-01 15:29:13|DEBUG|62811917695|21500|DbJasindo|updateBalance: 1
2014-04-01 15:29:13|DEBUG| Close CP DB Connection
2014-04-01 15:29:13| INFO||62811917695|CreateSubscriberMenuSession: 1|0|25000|0|0|21500| 
2014-04-01 15:29:20| INFO||62811917695|GetSubscriberMenuSession: 1|0|25000|0|0|21500| 
2014-04-01 15:29:25| INFO||62811917695|GetSubscriberMenuSession: 1|0|25000|0|0|21500| 
2014-04-01 15:36:37| INFO||628111171115|DestroySubscriberMenuSession: null
2014-04-01 15:36:37|DEBUG|1234567890123456|DbJasindo|getNominal: 50000
2014-04-01 15:36:37|DEBUG| Close CP DB Connection
2014-04-01 15:36:37| INFO||628111171115|CreateSubscriberMenuSession: 0|0|50000|0|0|46500| 
2014-04-01 15:36:42| INFO||628111171115|GetSubscriberMenuSession: 0|0|50000|0|0|46500| 
2014-04-01 15:36:42|DEBUG|628111171115|46500|DbJasindo|updateBalance: 1
2014-04-01 15:36:42|DEBUG| Close CP DB Connection
2014-04-01 15:36:42| INFO||628111171115|CreateSubscriberMenuSession: 1|0|50000|0|0|46500| 
2014-04-01 15:36:48| INFO||628111171115|GetSubscriberMenuSession: 1|0|50000|0|0|46500| 
2014-04-01 15:36:51| INFO||628111171115|GetSubscriberMenuSession: 1|0|50000|0|0|46500| 
2014-04-01 15:36:56| INFO||628111171115|GetSubscriberMenuSession: 1|0|50000|0|0|46500| 
2014-04-01 15:37:22| INFO||628111171115|GetSubscriberMenuSession: 1|0|50000|0|0|46500| 
2014-04-01 15:37:30| INFO||628111171115|GetSubscriberMenuSession: 1|0|50000|0|0|46500| 
2014-04-01 15:37:40| INFO||628111171115|GetSubscriberMenuSession: 1|0|50000|0|0|46500| 
2014-04-01 15:38:22| INFO||628111171115|DestroySubscriberMenuSession: null
2014-04-01 15:38:22|DEBUG|1234567890123456|DbJasindo|getNominal: 50000
2014-04-01 15:38:22|DEBUG| Close CP DB Connection
2014-04-01 15:38:22| INFO||628111171115|CreateSubscriberMenuSession: 0|0|50000|0|0|46500| 
2014-04-01 15:38:27| INFO||628111171115|GetSubscriberMenuSession: 0|0|50000|0|0|46500| 
2014-04-01 15:38:27|DEBUG|628111171115|46500|DbJasindo|updateBalance: 1
2014-04-01 15:38:27|DEBUG| Close CP DB Connection
2014-04-01 15:38:27| INFO||628111171115|CreateSubscriberMenuSession: 1|0|50000|0|0|46500| 
2014-04-01 15:38:31| INFO||628111171115|GetSubscriberMenuSession: 1|0|50000|0|0|46500| 
2014-04-01 15:38:35| INFO||628111171115|GetSubscriberMenuSession: 1|0|50000|0|0|46500| 
2014-04-01 15:38:40| INFO||628111171115|GetSubscriberMenuSession: 1|0|50000|0|0|46500| 
2014-04-01 16:09:42| INFO||628111171115|DestroySubscriberMenuSession: null
2014-04-01 16:09:42|DEBUG|1234567890123456|DbJasindo|getNominal: 50000
2014-04-01 16:09:42|DEBUG| Close CP DB Connection
2014-04-01 16:09:42| INFO||628111171115|CreateSubscriberMenuSession: 0|0|50000|0|0|46500| 
2014-04-01 16:09:46| INFO||628111171115|GetSubscriberMenuSession: 0|0|50000|0|0|46500| 
2014-04-01 16:09:46|DEBUG|628111171115|46500|DbJasindo|updateBalance: 1
2014-04-01 16:09:46|DEBUG| Close CP DB Connection
2014-04-01 16:09:46| INFO||628111171115|CreateSubscriberMenuSession: 1|0|50000|0|0|46500| 
2014-04-01 16:09:50| INFO||628111171115|GetSubscriberMenuSession: 1|0|50000|0|0|46500| 
2014-04-01 16:09:53| INFO||628111171115|GetSubscriberMenuSession: 1|0|50000|0|0|46500| 
2014-04-01 16:09:58| INFO||628111171115|GetSubscriberMenuSession: 1|0|50000|0|0|46500| 
2014-04-01 16:14:27| INFO||628111171115|DestroySubscriberMenuSession: null
2014-04-01 16:14:27|DEBUG|1234567890123456|DbJasindo|getNominal: 50000
2014-04-01 16:14:27|DEBUG| Close CP DB Connection
2014-04-01 16:14:27| INFO||628111171115|CreateSubscriberMenuSession: 0|0|50000|0|0|46500| 
2014-04-01 16:14:30| INFO||628111171115|GetSubscriberMenuSession: 0|0|50000|0|0|46500| 
2014-04-01 16:14:30|DEBUG|628111171115|46500|DbJasindo|updateBalance: 1
2014-04-01 16:14:30|DEBUG| Close CP DB Connection
2014-04-01 16:14:30| INFO||628111171115|CreateSubscriberMenuSession: 1|0|50000|0|0|46500| 
2014-04-01 16:14:34| INFO||628111171115|GetSubscriberMenuSession: 1|0|50000|0|0|46500| 
2014-04-01 16:14:38| INFO||628111171115|GetSubscriberMenuSession: 1|0|50000|0|0|46500| 
2014-04-01 16:14:42| INFO||628111171115|GetSubscriberMenuSession: 1|0|50000|0|0|46500| 
2014-04-01 16:14:45| INFO||628111171115|GetSubscriberMenuSession: 1|0|50000|0|0|46500| 
2014-04-01 16:25:53| INFO||628111171115|DestroySubscriberMenuSession: null
2014-04-01 16:25:53|DEBUG|1234567890123456|DbJasindo|getNominal: 50000
2014-04-01 16:25:53|DEBUG| Close CP DB Connection
2014-04-01 16:25:53| INFO||628111171115|CreateSubscriberMenuSession: 0|0|50000|0|0|46500| 
2014-04-01 16:25:57| INFO||628111171115|GetSubscriberMenuSession: 0|0|50000|0|0|46500| 
2014-04-01 16:25:57|DEBUG|628111171115|46500|DbJasindo|updateBalance: 1
2014-04-01 16:25:57|DEBUG| Close CP DB Connection
2014-04-01 16:25:57| INFO||628111171115|CreateSubscriberMenuSession: 1|0|50000|0|0|46500| 
2014-04-01 16:26:01| INFO||628111171115|GetSubscriberMenuSession: 1|0|50000|0|0|46500| 
2014-04-01 16:26:05| INFO||628111171115|GetSubscriberMenuSession: 1|0|50000|0|0|46500| 
2014-04-01 16:26:10| INFO||628111171115|GetSubscriberMenuSession: 1|0|50000|0|0|46500| 
2014-04-01 16:26:13| INFO||628111171115|GetSubscriberMenuSession: 1|0|50000|0|0|46500| 
2014-04-01 16:26:16| INFO||628111171115|GetSubscriberMenuSession: 1|0|50000|0|0|46500| 
2014-04-01 16:38:49| INFO||62811917695|DestroySubscriberMenuSession: null
2014-04-01 16:38:49|DEBUG|12345|DbJasindo|getNominal: 25000
2014-04-01 16:38:49|DEBUG| Close CP DB Connection
2014-04-01 16:38:49| INFO||62811917695|CreateSubscriberMenuSession: 0|0|25000|0|0|21500| 
2014-04-01 16:38:58| INFO||62811917695|GetSubscriberMenuSession: 0|0|25000|0|0|21500| 
2014-04-01 16:38:58|DEBUG|62811917695|21500|DbJasindo|updateBalance: 1
2014-04-01 16:38:58|DEBUG| Close CP DB Connection
2014-04-01 16:38:58| INFO||62811917695|CreateSubscriberMenuSession: 1|0|25000|0|0|21500| 
2014-04-01 16:39:30| INFO||62811917695|GetSubscriberMenuSession: 1|0|25000|0|0|21500| 
2014-04-01 16:39:35| INFO||62811917695|GetSubscriberMenuSession: 1|0|25000|0|0|21500| 
2014-04-01 16:39:44| INFO||62811917695|GetSubscriberMenuSession: 1|0|25000|0|0|21500| 
2014-04-01 16:39:49| INFO||62811917695|GetSubscriberMenuSession: 1|0|25000|0|0|21500| 
2014-04-01 16:39:52| INFO||62811917695|GetSubscriberMenuSession: 1|0|25000|0|0|21500| 
2014-04-01 16:39:57| INFO||62811917695|GetSubscriberMenuSession: 1|0|25000|0|0|21500| 
