2017-11-28 19:12:25,012|Lapor|6282189206363|ebut sekiranya hal tsb menjadi atensi dan perhatian bpk ats perhatian bpk kami ucpkn trima ksh ttd ketua LSM MERDEKA PROVINSI GRTLO Hormat sy Imran Nento
2017-11-28 19:12:25,096|Lapor|6282189206363|ebut sekiranya hal tsb menjadi atensi dan perhatian bpk ats perhatian bpk kami ucpkn trima ksh ttd ketua LSM MERDEKA PROVINSI GRTLO Hormat sy Imran Nento|Maaf+format+yang+Anda+masukkan+salah%21|
2017-11-28 19:12:29,607|Lapor|6282189206363|arkat Grtlo apa lg siang tdi ada gerakan aliansi  masyarakat anti korupsi Grtlo melakukan aksi demo d kejaksaan tinggi.Grtlo yg mempertanyakan kasus ters
2017-11-28 19:12:29,661|Lapor|6282189206363|arkat Grtlo apa lg siang tdi ada gerakan aliansi  masyarakat anti korupsi Grtlo melakukan aksi demo d kejaksaan tinggi.Grtlo yg mempertanyakan kasus ters|Maaf+format+yang+Anda+masukkan+salah%21|
