2017-11-24 14:51:56,603|Lapor|62811916441|Lapor
2017-11-24 14:51:56,798|Lapor|62811916441|Lapor|Silahkan+pilih+jenis+keluhan+yang+Anda+alami%28ketikkan+nomor+saja%29%0A1.Coverage+2G%0A2.Voice%0A3.SMS%0A4.Data%0A5.Coverage+3G%2F4G%0A6.USSD%0A7.NSP%0A8.MMS%0A9.Blackberry%0A10.Flash|1
2017-11-24 14:52:03,428|Lapor|62811916441|1
2017-11-24 14:52:03,494|Lapor|62811916441|Coverage 2G|Silahkan+tulis+deskripsi+keluhan+Anda%2C+%28mis%3A+Tidak+bisa+menerima+SMS+di+domestik%2C+sudah+dilakukan+reset+handset%29|2
2017-11-24 14:52:21,403|Lapor|62811916441|Tidak bs akses
2017-11-24 14:52:21,470|Lapor|62811916441|Tidak bs akses|Pilih+regional%0A1.Sumbagut%0A2.Sumbagsel%0A3.Jabotabek%26Banten%0A4.Jabar%26Cirebon%0A5.Jateng%26DIY%0A6.Jatim%0A7.Bali+Nusra%0A8.Kalimantan%0A9.Sulawesi%26Papua%0A10.Sumbagteng|3
2017-11-24 14:52:41,513|Lapor|62811916441|1
2017-11-24 14:52:41,563|Lapor|62811916441|R1|Silahkan+tulis+rincian+alamat%2Flokasi+keluhan+Anda+%28mis%3AJl+Gatot+Subroto%29|4
2017-11-24 14:52:49,701|Lapor|62811916441|Gatsu
2017-11-24 14:52:49,886|Lapor|62811916441|Gatsu|Terima+Kasih+Keluhan+Anda+akan+Kami+tindak+lanjut+dengan+nomor+ticket+%3A+Connection+refused+%28Connection+refused%29%2CTindak+lanjut+keluhan+Anda+dpt+dilihat+di+https%3A%2F%2Fhelpdesk-web.telkomsel.co.id|5
