2012-07-26 16:12:11,910|queue_trxid|1000000000000001|knp? udh bs ?
2012-07-26 16:12:11,911|queue|1000000000000001|1|knp? udh bs ?
2012-07-26 16:12:11,911|queue:0|1000000000000001;knp? udh bs ?
2012-07-26 16:12:11,968|cweeta ussdpush:6281317200003|6285291600001|*807*2#|tetra.keysha|1000000000000002|OK|10.1.89.223:50005
2012-07-26 16:12:46,248|queue_trxid|1000000000000002|Blm
2012-07-26 16:12:46,248|queue|1000000000000002|1|Blm
2012-07-26 16:12:46,248|queue:0|1000000000000002;Blm
2012-07-26 16:12:46,265|cweeta ussdpush:6285291600001|6281317200003|*807*8#|Lia.Keysha|1000000000000001|OK|10.1.89.223:50005
2012-07-26 16:12:57,357|queue_trxid|1000000000000001|udh ganti hp?
2012-07-26 16:12:57,357|queue|1000000000000001|1|udh ganti hp?
2012-07-26 16:12:57,358|queue:0|1000000000000001;udh ganti hp?
2012-07-26 16:12:57,385|cweeta ussdpush:6281317200003|6285291600001|*807*2#|tetra.keysha|1000000000000002|OK|10.1.89.223:50005
2012-07-26 16:13:23,616|queue_trxid|1000000000000002|Blm, td aq chat kkm nanya ntar nek ojeg ke Margo dr juanda blh gk
2012-07-26 16:13:23,616|queue|1000000000000002|1|Blm, td aq chat kkm nanya ntar nek ojeg ke Margo dr juanda blh gk
2012-07-26 16:13:23,616|queue:0|1000000000000002;Blm, td aq chat kkm nanya ntar nek ojeg ke Margo dr juanda blh gk
2012-07-26 16:13:23,634|cweeta ussdpush:6285291600001|6281317200003|*807*8#|Lia.Keysha|1000000000000001|OK|10.1.89.223:50005
2012-07-26 16:14:01,993|queue_trxid|1000000000000001|gk, naik taksi aj, bb nya blm bs?, coba dpake telpon bb nya
2012-07-26 16:14:01,994|queue|1000000000000001|1|gk, naik taksi aj, bb nya blm bs?, coba dpake telpon bb nya
2012-07-26 16:14:01,994|queue:0|1000000000000001;gk, naik taksi aj, bb nya blm bs?, coba dpake telpon bb nya
2012-07-26 16:14:02,011|cweeta ussdpush:6281317200003|6285291600001|*807*2#|tetra.keysha|1000000000000002|OK|10.1.89.223:50005
2012-07-26 16:14:36,331|queue_trxid|1000000000000002|Syng, mahal nek taksi.sinyal bbnya SOS
2012-07-26 16:14:36,331|queue|1000000000000002|1|Syng, mahal nek taksi.sinyal bbnya SOS
2012-07-26 16:14:36,332|queue:0|1000000000000002;Syng, mahal nek taksi.sinyal bbnya SOS
2012-07-26 16:14:36,349|cweeta ussdpush:6285291600001|6281317200003|*807*8#|Lia.Keysha|1000000000000001|OK|10.1.89.223:50005
2012-07-26 16:15:17,739|queue_trxid|1000000000000001|udh lah d ksh tau jg,... kalo SOS coba buka d conection manager nya udh d set blm jaringannya
2012-07-26 16:15:17,740|queue|1000000000000001|1|udh lah d ksh tau jg,... kalo SOS coba buka d conection manager nya udh d set blm jaringannya
2012-07-26 16:15:17,740|queue:0|1000000000000001;udh lah d ksh tau jg,... kalo SOS coba buka d conection manager nya udh d set blm jaringannya
2012-07-26 16:15:17,767|cweeta ussdpush:6281317200003|6285291600001|*807*2#|tetra.keysha|1000000000000002|OK|10.1.89.223:50005
2012-07-26 16:31:54,581|queue_trxid|1000000000000009|ayok, dmn kang?
2012-07-26 16:31:54,581|queue|1000000000000009|1|ayok, dmn kang?
2012-07-26 16:31:54,581|queue:0|1000000000000009;ayok, dmn kang?
2012-07-26 16:31:54,640|cweeta ussdpush:6285215251977|6285291600001|*807*2#|tetra.keysha|1000000000000010|OK|10.1.89.223:50005
2012-07-26 16:32:04,681|queue_trxid|1000000000000010|ok gw ke sana
2012-07-26 16:32:04,681|queue|1000000000000010|1|ok gw ke sana
2012-07-26 16:32:04,681|queue:0|1000000000000010;ok gw ke sana
2012-07-26 16:32:04,698|cweeta ussdpush:6285291600001|6285215251977|*807*9#|zidane|1000000000000009|OK|10.1.89.223:50005
2012-07-26 16:32:12,760|queue_trxid|1000000000000009|sip
2012-07-26 16:32:12,760|queue|1000000000000009|1|sip
2012-07-26 16:32:12,760|queue:0|1000000000000009;sip
2012-07-26 16:32:12,777|cweeta ussdpush:6285215251977|6285291600001|*807*2#|tetra.keysha|1000000000000010|OK|10.1.89.223:50005
2012-07-26 16:32:34,979|queue_trxid|1000000000000010|ok. btw masih ada supplementary error mulu. nape ya
2012-07-26 16:32:34,979|queue|1000000000000010|1|ok. btw masih ada supplementary error mulu. nape ya
2012-07-26 16:32:34,979|queue:0|1000000000000010;ok. btw masih ada supplementary error mulu. nape ya
2012-07-26 16:32:34,997|cweeta ussdpush:6285291600001|6285215251977|*807*9#|zidane|1000000000000009|OK|10.1.89.223:50005
2012-07-26 16:32:51,327|queue_trxid|1000000000000009|iyeh nanti gw bnrin, hehehehehehe
2012-07-26 16:32:51,328|queue|1000000000000009|1|iyeh nanti gw bnrin, hehehehehehe
2012-07-26 16:32:51,328|queue:0|1000000000000009;iyeh nanti gw bnrin, hehehehehehe
2012-07-26 16:32:51,346|cweeta ussdpush:6285215251977|6285291600001|*807*2#|tetra.keysha|1000000000000010|OK|10.1.89.223:50005
2012-07-26 16:33:04,457|queue_trxid|1000000000000010|settingan handset apa?
2012-07-26 16:33:04,457|queue|1000000000000010|1|settingan handset apa?
2012-07-26 16:33:04,457|queue:0|1000000000000010;settingan handset apa?
2012-07-26 16:33:04,475|cweeta ussdpush:6285291600001|6285215251977|*807*9#|zidane|1000000000000009|OK|10.1.89.223:50005
2012-07-26 16:33:25,667|queue_trxid|1000000000000009|ada bbrp handset hrs gw ksh treatment beda
2012-07-26 16:33:25,667|queue|1000000000000009|1|ada bbrp handset hrs gw ksh treatment beda
2012-07-26 16:33:25,668|queue:0|1000000000000009;ada bbrp handset hrs gw ksh treatment beda
2012-07-26 16:33:25,686|cweeta ussdpush:6285215251977|6285291600001|*807*2#|tetra.keysha|1000000000000010|OK|10.1.89.223:50005
2012-07-26 16:36:37,554|queue_trxid|1000000000000001|owkeh
2012-07-26 16:36:37,555|queue|1000000000000001|1|owkeh
2012-07-26 16:36:37,555|queue:0|1000000000000001;owkeh
2012-07-26 16:36:37,608|cweeta ussdpush:6281317200003|6285291600001|*807*2#|tetra.keysha|1000000000000002|OK|10.1.89.223:50005
2012-07-26 16:37:52,290|queue_trxid|1000000000000002|Bntr lg dnyalain
2012-07-26 16:37:52,290|queue|1000000000000002|1|Bntr lg dnyalain
2012-07-26 16:37:52,290|queue:0|1000000000000002;Bntr lg dnyalain
2012-07-26 16:37:52,309|cweeta ussdpush:6285291600001|6281317200003|*807*8#|Lia.Keysha|1000000000000001|OK|10.1.89.223:50005
2012-07-26 16:38:09,458|queue_trxid|1000000000000001|jgn d nyalain, d restart ulang
2012-07-26 16:38:09,459|queue|1000000000000001|1|jgn d nyalain, d restart ulang
2012-07-26 16:38:09,459|queue:0|1000000000000001;jgn d nyalain, d restart ulang
2012-07-26 16:38:09,476|cweeta ussdpush:6281317200003|6285291600001|*807*2#|tetra.keysha|1000000000000002|OK|10.1.89.223:50005
2012-07-26 16:38:29,658|queue_trxid|1000000000000002|Lah kan td kartu ya dcabut
2012-07-26 16:38:29,658|queue|1000000000000002|1|Lah kan td kartu ya dcabut
2012-07-26 16:38:29,659|queue:0|1000000000000002;Lah kan td kartu ya dcabut
2012-07-26 16:38:29,676|cweeta ussdpush:6285291600001|6281317200003|*807*8#|Lia.Keysha|1000000000000001|OK|10.1.89.223:50005
2012-07-26 16:38:53,897|queue_trxid|1000000000000001|oh udh, yo wis,... brarti kan abis d restart
2012-07-26 16:38:53,898|queue|1000000000000001|1|oh udh, yo wis,... brarti kan abis d restart
2012-07-26 16:38:53,898|queue:0|1000000000000001;oh udh, yo wis,... brarti kan abis d restart
2012-07-26 16:38:53,915|cweeta ussdpush:6281317200003|6285291600001|*807*2#|tetra.keysha|1000000000000002|OK|10.1.89.223:50005
