2012-07-27 09:47:03,375|queue_trxid|1000000000000004|Yongkrue
2012-07-27 09:47:03,376|queue|1000000000000004|1|Yongkrue
2012-07-27 09:47:03,376|queue:0|1000000000000004;Yongkrue
2012-07-27 09:47:03,417|cweeta ussdpush:6285291600001|62811916441|*807*1#|Tetra|1000000000000007|OK|10.1.89.223:50005
2012-07-27 09:47:20,544|queue_trxid|1000000000000007|pasti pas, kaya pertaminaajah
2012-07-27 09:47:20,544|queue|1000000000000007|1|pasti pas, kaya pertaminaajah
2012-07-27 09:47:20,545|queue:0|1000000000000007;pasti pas, kaya pertaminaajah
2012-07-27 09:47:20,563|cweeta ussdpush:62811916441|6285291600001|*807*2#|tetra.keysha|1000000000000004|OK|10.1.89.223:50005
