2012-07-27 02:57:55,075|queue_trxid|1000000000000030|Masuk syg....
2012-07-27 02:57:55,076|queue|1000000000000030|1|Masuk syg....
2012-07-27 02:57:55,077|queue:0|1000000000000030;Masuk syg....
2012-07-27 02:57:55,129|cweeta ussdpush:6281317200003|62811916441|*807*1#|Tetra|1000000000000031|OK|10.1.89.223:50005
