2012-07-26 18:32:54,548|queue_trxid|1000000000000012|woi jg
2012-07-26 18:32:54,549|queue|1000000000000012|1|woi jg
2012-07-26 18:32:54,550|queue:0|1000000000000012;woi jg
2012-07-26 18:32:54,601|cweeta ussdpush:6281221660012|6285291600001|*807*2#|tetra.keysha|1000000000000011|OK|10.1.89.223:50005
2012-07-26 18:33:07,676|queue_trxid|1000000000000011|helo
2012-07-26 18:33:07,677|queue|1000000000000011|1|helo
2012-07-26 18:33:07,677|queue:0|1000000000000011;helo
2012-07-26 18:33:07,693|cweeta ussdpush:6285291600001|6281221660012|*807*10#|agus|1000000000000012|OK|10.1.89.223:50005
2012-07-26 18:33:47,064|queue_trxid|1000000000000011|hai
2012-07-26 18:33:47,065|queue|1000000000000011|1|hai
2012-07-26 18:33:47,065|queue:0|1000000000000011;hai
2012-07-26 18:33:47,081|cweeta ussdpush:6285291600001|6281221660012|*807*10#|agus|1000000000000012|OK|10.1.89.223:50005
2012-07-26 18:34:18,373|queue_trxid|1000000000000011|yup
2012-07-26 18:34:18,373|queue|1000000000000011|1|yup
2012-07-26 18:34:18,373|queue:0|1000000000000011;yup
2012-07-26 18:34:18,390|cweeta ussdpush:6285291600001|6281221660012|*807*10#|agus|1000000000000012|OK|10.1.89.223:50005
2012-07-26 18:34:31,502|queue_trxid|1000000000000012|ape
2012-07-26 18:34:31,502|queue|1000000000000012|1|ape
2012-07-26 18:34:31,502|queue:0|1000000000000012;ape
2012-07-26 18:34:31,520|cweeta ussdpush:6281221660012|6285291600001|*807*2#|tetra.keysha|1000000000000011|OK|10.1.89.223:50005
2012-07-26 18:34:43,621|queue_trxid|1000000000000011|hahahahaha
2012-07-26 18:34:43,621|queue|1000000000000011|1|hahahahaha
2012-07-26 18:34:43,622|queue:0|1000000000000011;hahahahaha
2012-07-26 18:34:43,638|cweeta ussdpush:6285291600001|6281221660012|*807*10#|agus|1000000000000012|OK|10.1.89.223:50005
2012-07-26 18:34:54,731|queue_trxid|1000000000000012|gdgdgdgdgdgdggdgd
2012-07-26 18:34:54,731|queue|1000000000000012|1|gdgdgdgdgdgdggdgd
2012-07-26 18:34:54,732|queue:0|1000000000000012;gdgdgdgdgdgdggdgd
2012-07-26 18:34:54,749|cweeta ussdpush:6281221660012|6285291600001|*807*2#|tetra.keysha|1000000000000011|OK|10.1.89.223:50005
2012-07-26 18:35:06,850|queue_trxid|1000000000000011|ok
2012-07-26 18:35:06,850|queue|1000000000000011|1|ok
2012-07-26 18:35:06,851|queue:0|1000000000000011;ok
2012-07-26 18:35:06,868|cweeta ussdpush:6285291600001|6281221660012|*807*10#|agus|1000000000000012|OK|10.1.89.223:50005
2012-07-26 18:35:16,949|queue_trxid|1000000000000012|mantab
2012-07-26 18:35:16,950|queue|1000000000000012|1|mantab
2012-07-26 18:35:16,950|queue:0|1000000000000012;mantab
2012-07-26 18:35:16,967|cweeta ussdpush:6281221660012|6285291600001|*807*2#|tetra.keysha|1000000000000011|OK|10.1.89.223:50005
2012-07-26 18:35:29,069|queue_trxid|1000000000000011|service apaan?
2012-07-26 18:35:29,069|queue|1000000000000011|1|service apaan?
2012-07-26 18:35:29,069|queue:0|1000000000000011;service apaan?
2012-07-26 18:35:29,088|cweeta ussdpush:6285291600001|6281221660012|*807*10#|agus|1000000000000012|OK|10.1.89.223:50005
2012-07-26 18:35:57,357|queue_trxid|1000000000000012|kita chat2 ria yg asik dehhhhhhhhhhhhhhhhhhhhhhhhhhhhhhhhhhhhhhhhhhhhhhhhhhhhhhhhhhhhhhhhhhhhhhhhhhh
2012-07-26 18:35:57,357|queue|1000000000000012|1|kita chat2 ria yg asik dehhhhhhhhhhhhhhhhhhhhhhhhhhhhhhhhhhhhhhhhhhhhhhhhhhhhhhhhhhhhhhhhhhhhhhhhhhh
2012-07-26 18:35:57,357|queue:0|1000000000000012;kita chat2 ria yg asik dehhhhhhhhhhhhhhhhhhhhhhhhhhhhhhhhhhhhhhhhhhhhhhhhhhhhhhhhhhhhhhhhhhhhhhhhhhh
2012-07-26 18:35:57,374|cweeta ussdpush:6281221660012|6285291600001|*807*2#|tetra.keysha|1000000000000011|OK|10.1.89.223:50005
2012-07-26 18:36:30,685|queue_trxid|1000000000000011|Hhhhhhhskdvdyevdybeuddhgdydhddhdjdhdhdkdhdhgdjskahsghdyebvdytdhdkjfhruyrbdygdjkfudh
2012-07-26 18:36:30,685|queue|1000000000000011|1|Hhhhhhhskdvdyevdybeuddhgdydhddhdjdhdhdkdhdhgdjskahsghdyebvdytdhdkjfhruyrbdygdjkfudh
2012-07-26 18:36:30,685|queue:0|1000000000000011;Hhhhhhhskdvdyevdybeuddhgdydhddhdjdhdhdkdhdhgdjskahsghdyebvdytdhdkjfhruyrbdygdjkfudh
2012-07-26 18:36:30,703|cweeta ussdpush:6285291600001|6281221660012|*807*10#|agus|1000000000000012|OK|10.1.89.223:50005
2012-07-26 18:36:50,884|queue_trxid|1000000000000012|hgdxdjdhdgfcfcfcfcfcfhfhfhfhfhhfhjfhfhfhfjfjfgfhfhfhfhfjfjfhfhfhfhfhfhfhfhfjfjfhfhfhfhfhfhfhfhfhf
2012-07-26 18:36:50,884|queue|1000000000000012|1|hgdxdjdhdgfcfcfcfcfcfhfhfhfhfhhfhjfhfhfhfjfjfgfhfhfhfhfjfjfhfhfhfhfhfhfhfhfjfjfhfhfhfhfhfhfhfhfhf
2012-07-26 18:36:50,884|queue:0|1000000000000012;hgdxdjdhdgfcfcfcfcfcfhfhfhfhfhhfhjfhfhfhfjfjfgfhfhfhfhfjfjfhfhfhfhfhfhfhfhfjfjfhfhfhfhfhfhfhfhfhf
2012-07-26 18:36:50,902|cweeta ussdpush:6281221660012|6285291600001|*807*2#|tetra.keysha|1000000000000011|OK|10.1.89.223:50005
2012-07-26 18:40:33,081|queue_trxid|1000000000000013|namanya cweeta (cuit cuit bareng kita), harga blm bos
2012-07-26 18:40:33,081|queue|1000000000000013|1|namanya cweeta (cuit cuit bareng kita), harga blm bos
2012-07-26 18:40:33,081|queue:0|1000000000000013;namanya cweeta (cuit cuit bareng kita), harga blm bos
2012-07-26 18:40:33,137|cweeta ussdpush:62811184416|6285291600001|*807*2#|tetra.keysha|1000000000000014|OK|10.1.89.223:50005
2012-07-26 18:40:58,337|queue_trxid|1000000000000014|Tarifnya per paket?
2012-07-26 18:40:58,337|queue|1000000000000014|1|Tarifnya per paket?
2012-07-26 18:40:58,338|queue:0|1000000000000014;Tarifnya per paket?
2012-07-26 18:40:58,354|cweeta ussdpush:6285291600001|62811184416|*807*11#|Abah|1000000000000013|OK|10.1.89.223:50005
2012-07-26 18:41:18,538|queue_trxid|1000000000000013|rencananya msh d godok, yuks kita solat dl
2012-07-26 18:41:18,538|queue|1000000000000013|1|rencananya msh d godok, yuks kita solat dl
2012-07-26 18:41:18,538|queue:0|1000000000000013;rencananya msh d godok, yuks kita solat dl
2012-07-26 18:41:18,556|cweeta ussdpush:62811184416|6285291600001|*807*2#|tetra.keysha|1000000000000014|OK|10.1.89.223:50005
